{
  "data": [
    {
      "accession_number": "Voyager:186795",
      "thumbnail": "https://iiif.stack.rdc-staging.library.northwestern.edu/iiif/2/80c8ab64-50ae-437d-9fef-f24efb7865ef/full/!300,300/0/default.jpg",
      "iiif_manifest": "https://iiif.stack.rdc-staging.library.northwestern.edu/public/55/5e/e0/5a/-8/1b/3-/44/2e/-8/a7/e-/a9/df/e4/b8/28/5a-manifest.json",
      "work_type": "Image",
      "id": "555ee05a-81b3-442e-8a7e-a9dfe4b8285a",
      "title": "Santiago de Compostela Cathedral. Exterior; Puerta de las Platerias"
    },
    {
      "accession_number": "Accession:JR_150_35",
      "thumbnail": "https://iiif.stack.rdc-staging.library.northwestern.edu/iiif/2/97ca95b8-6b12-4c68-83e4-ecea21cabc81/full/!300,300/0/default.jpg",
      "iiif_manifest": "https://iiif.stack.rdc-staging.library.northwestern.edu/public/5a/b4/51/a5/-2/12/c-/4e/d8/-9/5a/5-/62/6b/d2/de/c0/cb-manifest.json",
      "work_type": "Image",
      "id": "5ab451a5-212c-4ed8-95a5-626bd2dec0cb",
      "title": "Chicago Jazz Musicians -- for film by Chris Vail '71"
    },
    {
      "accession_number": "Voyager:312796",
      "thumbnail": "https://iiif.stack.rdc-staging.library.northwestern.edu/iiif/2/addaf6a7-1262-41d6-be10-dcb9fa100d63/full/!300,300/0/default.jpg",
      "iiif_manifest": "https://iiif.stack.rdc-staging.library.northwestern.edu/public/5f/d3/d5/28/-8/11/0-/44/12/-b/da/7-/bb/59/16/ed/38/a9-manifest.json",
      "work_type": "Image",
      "id": "5fd3d528-8110-4412-bda7-bb5916ed38a9",
      "title": "Venus & Cupid"
    },
    {
      "accession_number": "TWA031",
      "thumbnail": "https://iiif.stack.rdc-staging.library.northwestern.edu/iiif/2/d20585df-b025-420b-8a59-95a237bcadc7/full/!300,300/0/default.jpg",
      "iiif_manifest": "https://iiif.stack.rdc-staging.library.northwestern.edu/public/63/c9/bc/60/-6/ac/f-/4a/b1/-b/4d/6-/ce/69/a3/21/cb/e2-manifest.json",
      "work_type": "Image",
      "id": "63c9bc60-6acf-4ab1-b4d6-ce69a321cbe2",
      "title": "Trans World Airlines, Menu: N/A"
    },
    {
      "accession_number": "Accession:313531",
      "thumbnail": "https://iiif.stack.rdc-staging.library.northwestern.edu/iiif/2/d164b89c-10ca-42d3-b201-d584e7175604/full/!300,300/0/default.jpg",
      "iiif_manifest": "https://iiif.stack.rdc-staging.library.northwestern.edu/public/65/93/89/f3/-2/2e/3-/41/f3/-a/22/e-/dd/99/18/3a/f3/38-manifest.json",
      "work_type": "Image",
      "id": "659389f3-22e3-41f3-a22e-dd99183af338",
      "title": "Green Tārā"
    },
    {
      "accession_number": "Voyager:166200",
      "thumbnail": "https://iiif.stack.rdc-staging.library.northwestern.edu/iiif/2/7b3296c9-5f1e-40ee-8d65-358f0087256c/full/!300,300/0/default.jpg",
      "iiif_manifest": "https://iiif.stack.rdc-staging.library.northwestern.edu/public/67/34/8c/ce/-9/be/6-/46/e9/-8/29/f-/7f/e8/de/5a/65/11-manifest.json",
      "work_type": "Image",
      "id": "67348cce-9be6-46e9-829f-7fe8de5a6511",
      "title": "Self-Portrait in Florence"
    },
    {
      "accession_number": "Voyager:RL03103",
      "thumbnail": "https://iiif.stack.rdc-staging.library.northwestern.edu/iiif/2/b67020b9-c57e-49e2-b099-44fb70548a25/full/!300,300/0/default.jpg",
      "iiif_manifest": "https://iiif.stack.rdc-staging.library.northwestern.edu/public/67/5f/a1/49/-9/a9/2-/4d/81/-b/00/1-/3c/ad/32/22/45/79-manifest.json",
      "work_type": "Image",
      "id": "675fa149-9a92-4d81-b001-3cad32224579",
      "title": "Panchen Lama pre-incarnation Manjukirti (Mañjuśrī-kirti or King Rigden Gyalpo), 8th Shambhala king Detail: close-up of painting"
    },
    {
      "accession_number": "Voyager:Jic0778",
      "thumbnail": "https://iiif.stack.rdc-staging.library.northwestern.edu/iiif/2/55f88df6-8d36-4ea1-913c-f3eac09108b7/full/!300,300/0/default.jpg",
      "iiif_manifest": "https://iiif.stack.rdc-staging.library.northwestern.edu/public/6c/2e/4d/68/-c/55/e-/4f/3b/-9/1a/d-/ae/37/bb/63/ba/39-manifest.json",
      "work_type": "Image",
      "id": "6c2e4d68-c55e-4f3b-91ad-ae37bb63ba39",
      "title": "Satyr Carrying the Child Dionysus on His Left Arm. Total from front right"
    },
    {
      "accession_number": "Voyager:18113",
      "thumbnail": "https://iiif.stack.rdc-staging.library.northwestern.edu/iiif/2/82c5ad3b-304a-40ea-a891-d4d07ca1cde3/full/!300,300/0/default.jpg",
      "iiif_manifest": "https://iiif.stack.rdc-staging.library.northwestern.edu/public/6e/c9/87/24/-5/f3/c-/43/db/-b/a5/6-/93/41/62/39/d6/63-manifest.json",
      "work_type": "Image",
      "id": "6ec98724-5f3c-43db-ba56-93416239d663",
      "title": "Portrait of Richard Mather"
    },
    {
      "accession_number": "Voyager:123504",
      "thumbnail": "https://iiif.stack.rdc-staging.library.northwestern.edu/iiif/2/76fc354b-edb9-40e1-9baa-ed8b673680f0/full/!300,300/0/default.jpg",
      "iiif_manifest": "https://iiif.stack.rdc-staging.library.northwestern.edu/public/7c/a4/00/f0/-7/c6/e-/49/07/-a/ff/0-/71/26/a9/f9/85/b3-manifest.json",
      "work_type": "Image",
      "id": "7ca400f0-7c6e-4907-aff0-7126a9f985b3",
      "title": "Corps Student from Nuremberg, Cologne"
    },
    {
      "accession_number": "Accession:JR_127_39",
      "thumbnail": "https://iiif.stack.rdc-staging.library.northwestern.edu/iiif/2/0d5d6980-dd08-4dbf-8150-1de61b08e2aa/full/!300,300/0/default.jpg",
      "iiif_manifest": "https://iiif.stack.rdc-staging.library.northwestern.edu/public/81/b0/bd/ab/-e/6e/4-/40/ef/-8/50/4-/ef/b9/b4/d2/64/d2-manifest.json",
      "work_type": "Image",
      "id": "81b0bdab-e6e4-40ef-8504-efb9b4d264d2",
      "title": "Puppies Fred and Sailor on frozen lakefront"
    },
    {
      "accession_number": "Voyager:126371",
      "thumbnail": "https://iiif.stack.rdc-staging.library.northwestern.edu/iiif/2/338e8b6e-bf11-4d4f-83db-55a94c565e7c/full/!300,300/0/default.jpg",
      "iiif_manifest": "https://iiif.stack.rdc-staging.library.northwestern.edu/public/84/c3/e0/78/-9/7e/5-/48/48/-b/82/b-/80/f0/3e/de/a2/b5-manifest.json",
      "work_type": "Image",
      "id": "84c3e078-97e5-4848-b82b-80f03edea2b5",
      "title": "Central area housing plan"
    },
    {
      "accession_number": "Voyager:TL01260008",
      "thumbnail": "https://iiif.stack.rdc-staging.library.northwestern.edu/iiif/2/839f0553-edee-45de-81fd-ffdfbbcab706/full/!300,300/0/default.jpg",
      "iiif_manifest": "https://iiif.stack.rdc-staging.library.northwestern.edu/public/84/e0/6e/66/-7/a6/7-/4f/d4/-b/15/4-/87/68/83/01/c8/1a-manifest.json",
      "work_type": "Image",
      "id": "84e06e66-7a67-4fd4-b154-87688301c81a",
      "title": "Passengers smoke room looking aft"
    },
    {
      "accession_number": "Voyager:Uib0011",
      "thumbnail": "https://iiif.stack.rdc-staging.library.northwestern.edu/iiif/2/256b29df-6d3a-4b85-9868-8c00ed71a0b3/full/!300,300/0/default.jpg",
      "iiif_manifest": "https://iiif.stack.rdc-staging.library.northwestern.edu/public/96/94/ef/dd/-2/d8/3-/4d/56/-b/68/4-/31/61/c7/6e/85/df-manifest.json",
      "work_type": "Image",
      "id": "9694efdd-2d83-4d56-b684-3161c76e85df",
      "title": "Via delle Fratta. View S of narrow street w. closed vista"
    },
    {
      "accession_number": "Voyager:133126",
      "thumbnail": "https://iiif.stack.rdc-staging.library.northwestern.edu/iiif/2/24267b2d-80d9-4678-b998-85054f95e29e/full/!300,300/0/default.jpg",
      "iiif_manifest": "https://iiif.stack.rdc-staging.library.northwestern.edu/public/9d/0b/2a/fa/-a/d0/7-/49/e9/-a/eb/8-/f2/0b/54/a0/18/95-manifest.json",
      "work_type": "Image",
      "id": "9d0b2afa-ad07-49e9-aeb8-f20b54a01895",
      "title": "Saint Vitus Cathedral. Detail: Saint Wenceslas"
    },
    {
      "accession_number": "Voyager:Lgf0090",
      "thumbnail": "https://iiif.stack.rdc-staging.library.northwestern.edu/iiif/2/5431242a-d407-4f4b-b0de-830f0b94681c/full/!300,300/0/default.jpg",
      "iiif_manifest": "https://iiif.stack.rdc-staging.library.northwestern.edu/public/9f/be/cd/85/-0/d4/d-/45/38/-9/ae/6-/ad/78/f1/d8/25/87-manifest.json",
      "work_type": "Image",
      "id": "9fbecd85-0d4d-4538-9ae6-ad78f1d82587",
      "title": "Mass of St. Gregory"
    },
    {
      "accession_number": "Voyager:302841",
      "thumbnail": "https://iiif.stack.rdc-staging.library.northwestern.edu/iiif/2/8b18545b-bb21-4fdb-b5fc-44814a2a5dc0/full/!300,300/0/default.jpg",
      "iiif_manifest": "https://iiif.stack.rdc-staging.library.northwestern.edu/public/a2/1b/a3/b6/-1/38/8-/4f/e1/-9/78/7-/50/f6/79/d5/69/53-manifest.json",
      "work_type": "Image",
      "id": "a21ba3b6-1388-4fe1-9787-50f679d56953",
      "title": "Grotto"
    },
    {
      "accession_number": "Voyager:103699",
      "thumbnail": "https://iiif.stack.rdc-staging.library.northwestern.edu/iiif/2/0a5c67a3-65a8-4b6c-98e6-9c400985edb2/full/!300,300/0/default.jpg",
      "iiif_manifest": "https://iiif.stack.rdc-staging.library.northwestern.edu/public/a2/c9/6a/9a/-3/f3/e-/40/e0/-a/84/b-/8f/26/85/a6/f3/76-manifest.json",
      "work_type": "Image",
      "id": "a2c96a9a-3f3e-40e0-a84b-8f2685a6f376",
      "title": "Aryballos"
    },
    {
      "accession_number": "Voyager:258502",
      "thumbnail": "https://iiif.stack.rdc-staging.library.northwestern.edu/iiif/2/dee22c42-7d6a-4a19-a473-cc3ef5eba844/full/!300,300/0/default.jpg",
      "iiif_manifest": "https://iiif.stack.rdc-staging.library.northwestern.edu/public/a9/00/08/15/-c/28/5-/46/24/-8/e6/f-/55/60/51/22/1c/d8-manifest.json",
      "work_type": "Image",
      "id": "a9000815-c285-4624-8e6f-556051221cd8",
      "title": "1100 N. Lake Shore Drive apartments. Exterior: facade"
    },
    {
      "accession_number": "Voyager:287220",
      "thumbnail": "https://iiif.stack.rdc-staging.library.northwestern.edu/iiif/2/00a0930a-2288-4ad0-8bbc-155427278d68/full/!300,300/0/default.jpg",
      "iiif_manifest": "https://iiif.stack.rdc-staging.library.northwestern.edu/public/a9/08/7f/da/-7/5c/9-/4a/84/-a/1a/3-/64/c7/9a/4e/bb/d7-manifest.json",
      "work_type": "Image",
      "id": "a9087fda-75c9-4a84-a1a3-64c79a4ebbd7",
      "title": "Portrait of Anton Francesco Doni"
    },
    {
      "accession_number": "Voyager:Lif1003",
      "thumbnail": "https://iiif.stack.rdc-staging.library.northwestern.edu/iiif/2/60c3d5da-c4ad-426b-a03e-0730cc1b65ba/full/!300,300/0/default.jpg",
      "iiif_manifest": "https://iiif.stack.rdc-staging.library.northwestern.edu/public/a9/d1/17/cc/-3/af/8-/46/c5/-9/da/2-/d3/c3/a2/54/8c/f3-manifest.json",
      "work_type": "Image",
      "id": "a9d117cc-3af8-46c5-9da2-d3c3a2548cf3",
      "title": "Venus of Urbino. Upper right detail with servants, dog"
    },
    {
      "accession_number": "Voyager:285707",
      "thumbnail": "https://iiif.stack.rdc-staging.library.northwestern.edu/iiif/2/8269c962-5027-4aa4-a4db-489195e04ade/full/!300,300/0/default.jpg",
      "iiif_manifest": "https://iiif.stack.rdc-staging.library.northwestern.edu/public/ee/c7/1c/78/-c/86/5-/4b/71/-8/84/6-/60/b5/bc/1a/72/1f-manifest.json",
      "work_type": "Image",
      "id": "eec71c78-c865-4b71-8846-60b5bc1a721f",
      "title": "Government River and Oceans North Customs (#1)"
    },
    {
      "accession_number": "Voyager:Mff1219",
      "thumbnail": "https://iiif.stack.rdc-staging.library.northwestern.edu/iiif/2/cb885f11-ceac-43cc-b8ee-add2440d542b/full/!300,300/0/default.jpg",
      "iiif_manifest": "https://iiif.stack.rdc-staging.library.northwestern.edu/public/b5/b0/32/d9/-4/ee/0-/48/95/-8/c4/c-/69/6e/53/4f/be/28-manifest.json",
      "work_type": "Image",
      "id": "b5b032d9-4ee0-4895-8c4c-696e534fbe28",
      "title": "Fete Champetre (unfinished). central detail"
    },
    {
      "accession_number": "Voyager:53936",
      "thumbnail": "https://iiif.stack.rdc-staging.library.northwestern.edu/iiif/2/c0b6140a-215c-44a3-a478-22899f76a4ae/full/!300,300/0/default.jpg",
      "iiif_manifest": "https://iiif.stack.rdc-staging.library.northwestern.edu/public/bf/bf/8c/f5/-1/cf/9-/45/88/-a/69/8-/62/44/1a/56/04/76-manifest.json",
      "work_type": "Image",
      "id": "bfbf8cf5-1cf9-4588-a698-62441a560476",
      "title": "Piazza Armerina. Roman villa: plan"
    },
    {
      "accession_number": "Voyager:Jta1002",
      "thumbnail": "https://iiif.stack.rdc-staging.library.northwestern.edu/iiif/2/8e95874f-bdce-4b44-bc7e-d73dd112ebc7/full/!300,300/0/default.jpg",
      "iiif_manifest": "https://iiif.stack.rdc-staging.library.northwestern.edu/public/c7/72/ee/71/-b/5a/2-/4b/fa/-b/1b/9-/ba/9f/c1/6c/91/83-manifest.json",
      "work_type": "Image",
      "id": "c772ee71-b5a2-4bfa-b1b9-ba9fc16c9183",
      "title": "Temple of Apollo: 4th c. BC, 1st, 2nd & 4th c. AD [under Caligula (37-41), Hadrian (117-138), and Julian the Apostate (361-363), never completed]. General from E, with Pronaos, columns"
    },
    {
      "accession_number": "Voyager:181297",
      "thumbnail": "https://iiif.stack.rdc-staging.library.northwestern.edu/iiif/2/37946b65-5379-4b18-a9d5-14ad19d00b48/full/!300,300/0/default.jpg",
      "iiif_manifest": "https://iiif.stack.rdc-staging.library.northwestern.edu/public/cb/e9/a7/46/-b/92/5-/43/b4/-b/68/d-/e8/08/d0/48/b2/bc-manifest.json",
      "work_type": "Image",
      "id": "cbe9a746-b925-43b4-b68d-e808d048b2bc",
      "title": "Brooks building. Exterior"
    },
    {
      "accession_number": "Voyager:115024",
      "thumbnail": "https://iiif.stack.rdc-staging.library.northwestern.edu/iiif/2/93d05a28-65fb-4a74-a3d1-be841e852178/full/!300,300/0/default.jpg",
      "iiif_manifest": "https://iiif.stack.rdc-staging.library.northwestern.edu/public/e9/2e/32/93/-e/8b/7-/4d/cd/-8/97/7-/86/87/d1/26/c1/97-manifest.json",
      "work_type": "Image",
      "id": "e92e3293-e8b7-4dcd-8977-8687d126c197",
      "title": "Montgomery Ward building (altered). Exterior: facade (with Statue of progress)"
    },
    {
      "accession_number": "Voyager:Mid0411",
      "thumbnail": "https://iiif.stack.rdc-staging.library.northwestern.edu/iiif/2/29e1ef95-97cd-4ff8-be7a-612139347f93/full/!300,300/0/default.jpg",
      "iiif_manifest": "https://iiif.stack.rdc-staging.library.northwestern.edu/public/f1/f5/c0/d0/-a/23/c-/49/9c/-a/6b/c-/e6/20/32/60/6c/c2-manifest.json",
      "work_type": "Image",
      "id": "f1f5c0d0-a23c-499c-a6bc-e62032606cc2",
      "title": "Tomb of Pope Gregory XII Boncompagni (r.1572-85). Det"
    },
    {
      "accession_number": "Voyager:39039",
      "thumbnail": "https://iiif.stack.rdc-staging.library.northwestern.edu/iiif/2/057b361b-b9a3-45ee-b748-f87b83d5e0ec/full/!300,300/0/default.jpg",
      "iiif_manifest": "https://iiif.stack.rdc-staging.library.northwestern.edu/public/f9/06/98/ee/-0/a1/f-/48/cd/-9/4e/b-/fe/b8/e2/65/60/26-manifest.json",
      "work_type": "Image",
      "id": "f90698ee-0a1f-48cd-94eb-feb8e2656026",
      "title": "Entrance to temple"
    },
    {
      "accession_number": "Voyager:1497",
      "thumbnail": "https://iiif.stack.rdc-staging.library.northwestern.edu/iiif/2/0cc6040f-a715-4a2b-8ac7-dcb28dbfb5d2/full/!300,300/0/default.jpg",
      "iiif_manifest": "https://iiif.stack.rdc-staging.library.northwestern.edu/public/fd/ab/5c/24/-a/85/4-/4f/0c/-9/e9/f-/47/14/77/2d/74/5a-manifest.json",
      "work_type": "Image",
      "id": "fdab5c24-a854-4f0c-9e9f-4714772d745a",
      "title": "St. Augustine in His Cell"
    },
    {
      "accession_number": "Voyager:123527",
      "thumbnail": "https://iiif.stack.rdc-staging.library.northwestern.edu/iiif/2/1ceaa647-1b1b-4e9d-8e3f-2a1539af3410/full/!300,300/0/default.jpg",
      "iiif_manifest": "https://iiif.stack.rdc-staging.library.northwestern.edu/public/ff/52/0a/e7/-1/62/1-/4b/59/-9/da/7-/6c/f1/04/50/b7/17-manifest.json",
      "work_type": "Image",
      "id": "ff520ae7-1621-4b59-9da7-6cf10450b717",
      "title": "Undernourished Child of the Tenements"
    },
    {
      "accession_number": "BFMF_B15_F08_006_016n",
      "thumbnail": "https://iiif.stack.rdc-staging.library.northwestern.edu/iiif/2/55c4ff8f-f3fe-46b5-a023-b78d919958de/full/!300,300/0/default.jpg",
      "iiif_manifest": "https://iiif.stack.rdc-staging.library.northwestern.edu/public/25/01/42/40/-8/cd/a-/4b/d1/-8/20/3-/38/0b/d1/95/de/38-manifest.json",
      "work_type": "Image",
      "id": "25014240-8cda-4bd1-8203-380bd195de38",
      "title": "J.E. Mainer's Mountaineers"
    },
    {
      "accession_number": "BFMF_B39_F22_011",
      "thumbnail": "https://iiif.stack.rdc-staging.library.northwestern.edu/iiif/2/25a9ff7f-6abb-4a12-ae00-6b6bc32619af/full/!300,300/0/default.jpg",
      "iiif_manifest": "https://iiif.stack.rdc-staging.library.northwestern.edu/public/be/36/69/d7/-4/61/d-/47/1d/-a/ea/d-/f7/0f/e5/ca/2f/d6-manifest.json",
      "work_type": "Image",
      "id": "be3669d7-461d-471d-aead-f70fe5ca2fd6",
      "title": "Letter from Mike Seeger to Barry Olivier"
    },
    {
      "accession_number": "BFMF_B06_F04_011_001n",
      "thumbnail": "https://iiif.stack.rdc-staging.library.northwestern.edu/iiif/2/46ebd0cf-2cfa-441f-a1dc-2a0e0137d0a8/full/!300,300/0/default.jpg",
      "iiif_manifest": "https://iiif.stack.rdc-staging.library.northwestern.edu/public/43/70/c3/84/-e/5f/6-/4a/2a/-b/2e/f-/9f/6e/ff/1e/72/fe-manifest.json",
      "work_type": "Image",
      "id": "4370c384-e5f6-4a2a-b2ef-9f6eff1e72fe",
      "title": "Jefferson Airplane"
    },
    {
      "accession_number": "BFMF_B19_F07_003_042n",
      "thumbnail": "https://iiif.stack.rdc-staging.library.northwestern.edu/iiif/2/73fad1b2-2858-4eea-80d6-4ccb3f42ad3b/full/!300,300/0/default.jpg",
      "iiif_manifest": "https://iiif.stack.rdc-staging.library.northwestern.edu/public/45/0e/f3/a0/-9/1d/f-/45/95/-b/54/8-/fe/bc/b7/ab/c5/04-manifest.json",
      "work_type": "Image",
      "id": "450ef3a0-91df-4595-b548-febcb7abc504",
      "title": "Dev Singh, KPFA session"
    },
    {
      "accession_number": "BFMF_B35_F15_007",
      "thumbnail": "https://iiif.stack.rdc-staging.library.northwestern.edu/iiif/2/5924ce28-6876-4fe6-8ef7-d294dcd380cd/full/!300,300/0/default.jpg",
      "iiif_manifest": "https://iiif.stack.rdc-staging.library.northwestern.edu/public/58/6c/9e/b6/-9/e2/7-/4f/c4/-b/f6/9-/a2/01/a7/05/41/ff-manifest.json",
      "work_type": "Image",
      "id": "586c9eb6-9e27-4fc4-bf69-a201a70541ff",
      "title": "Actor's Workshop clippings"
    },
    {
      "accession_number": "BFMF_B28_F07_023",
      "thumbnail": "https://iiif.stack.rdc-staging.library.northwestern.edu/iiif/2/e675f516-6cb4-4806-8030-ea036540c272/full/!300,300/0/default.jpg",
      "iiif_manifest": "https://iiif.stack.rdc-staging.library.northwestern.edu/public/ab/f0/e1/e7/-4/b5/6-/40/38/-a/b4/e-/b7/06/3d/e2/ba/32-manifest.json",
      "work_type": "Image",
      "id": "abf0e1e7-4b56-4038-ab4e-b7063de2ba32",
      "title": "Two articles about \"war tax\" protest"
    },
    {
      "accession_number": "BFMF_B17_F01_028",
      "thumbnail": "https://iiif.stack.rdc-staging.library.northwestern.edu/iiif/2/bcc3bf64-47bd-480b-ab3e-d269b2d33687/full/!300,300/0/default.jpg",
      "iiif_manifest": "https://iiif.stack.rdc-staging.library.northwestern.edu/public/b3/46/b4/b4/-e/12/0-/40/69/-9/aa/6-/15/3d/51/76/28/a4-manifest.json",
      "work_type": "Image",
      "id": "b346b4b4-e120-4069-9aa6-153d517628a4",
      "title": "Pete Seeger, 1966 Berkeley Folk Music Festival"
    },
    {
      "accession_number": "BFMF_B49_F05_001",
      "thumbnail": "https://iiif.stack.rdc-staging.library.northwestern.edu/iiif/2/0aed3de4-8fe1-405e-a929-907fc296b30c/full/!300,300/0/default.jpg",
      "iiif_manifest": "https://iiif.stack.rdc-staging.library.northwestern.edu/public/d2/b3/98/bc/-6/7d/0-/4b/a6/-b/61/f-/99/c3/91/c4/fa/53-manifest.json",
      "work_type": "Image",
      "id": "d2b398bc-67d0-4ba6-b61f-99c391c4fa53",
      "title": "Fifth Annual Folk Music Festival brochure"
    },
    {
      "accession_number": "BFMF_B20_F01_010_022n",
      "thumbnail": "https://iiif.stack.rdc-staging.library.northwestern.edu/iiif/2/450dc666-7258-4404-8860-f8e73c5690dd/full/!300,300/0/default.jpg",
      "iiif_manifest": "https://iiif.stack.rdc-staging.library.northwestern.edu/public/ba/34/b5/ed/-8/0a/c-/4d/a5/-8/5c/9-/61/bd/7c/00/d0/86-manifest.json",
      "work_type": "Image",
      "id": "ba34b5ed-80ac-4da5-85c9-61bd7c00d086",
      "title": "Ian and Sylvia, San Francisco State Folk Festival"
    }
  ],
  "pagination": {
    "query_url": "https://dcapi.rdc-staging.library.northwestern.edu/api/v2/search?searchToken=N4IgRg9gJgniBcoDOBLAXgUwQFgAwBoQB9JCAVwCcBjLeAbRAEMqalUIA7IjsgWzAwUQhFFGEgUkgGZFejDiikYkAF3EqUKgDZZCKgBZ8wHRii3iA7hAoBrIipgAHLAF1CARzKC4icBAjmvrxkqgh0LgC%2BUYS80BhaSGEgVraJbiBS1nJq8CBQGFKMZFpqhBCOGpyJiFFAA",
    "current_page": 3,
    "limit": 40,
    "offset": 80,
    "total_hits": 575,
    "total_pages": 15,
    "prev_url": "https://dcapi.rdc-staging.library.northwestern.edu/api/v2/search?searchToken=N4IgRg9gJgniBcoDOBLAXgUwQFgAwBoQB9JCAVwCcBjLeAbRAEMqalUIA7IjsgWzAwUQhFFGEgUkgGZFejDiikYkAF3EqUKgDZZCKgBZ8wHRii3iA7hAoBrIipgAHLAF1CARzKC4icBAjmvrxkqgh0LgC%2BUYS80BhaSGEgVraJbiBS1nJq8CBQGFKMZFpqhBCOGpyJiFFAA&page=2",
    "next_url": "https://dcapi.rdc-staging.library.northwestern.edu/api/v2/search?searchToken=N4IgRg9gJgniBcoDOBLAXgUwQFgAwBoQB9JCAVwCcBjLeAbRAEMqalUIA7IjsgWzAwUQhFFGEgUkgGZFejDiikYkAF3EqUKgDZZCKgBZ8wHRii3iA7hAoBrIipgAHLAF1CARzKC4icBAjmvrxkqgh0LgC%2BUYS80BhaSGEgVraJbiBS1nJq8CBQGFKMZFpqhBCOGpyJiFFAA&page=4"
  },
  "info": {}
}
