{
  "data": [],
  "pagination": {
    "query_url": "https://dcapi.rdc-staging.library.northwestern.edu/api/v2/search?searchToken=N4IgRg9gJgniBcoDOBLAXgUwQBgDQgH0kIBXAJwGMt4BtEAQwqqVQgDsC2SBbMDMkPhRRBIFOIBmBbvTYoJGJABdRSlEoA2WfEoAWPMG3ooNogO4QyAawJKYABywBdfAEcS-OInAQIp79wkygg0TgC%2BEfjc0BgaSCEgFtbxLiASljIq8CBQGBL0JBoq%2BBD2auzxiBFAA",
    "current_page": 1,
    "limit": 10,
    "offset": 0,
    "total_hits": 575,
    "total_pages": 58,
    "next_url": "https://dcapi.rdc-staging.library.northwestern.edu/api/v2/search?searchToken=N4IgRg9gJgniBcoDOBLAXgUwQBgDQgH0kIBXAJwGMt4BtEAQwqqVQgDsC2SBbMDMkPhRRBIFOIBmBbvTYoJGJABdRSlEoA2WfEoAWPMG3ooNogO4QyAawJKYABywBdfAEcS-OInAQIp79wkygg0TgC%2BEfjc0BgaSCEgFtbxLiASljIq8CBQGBL0JBoq%2BBD2auzxiBFAA&page=2"
  },
  "info": {},
  "aggregations": {
    "subject": {
      "doc_count_error_upper_bound": 0,
      "sum_other_doc_count": 67,
      "buckets": [
        { "key": "Berkeley (Calif.)", "doc_count": 12 },
        { "key": "San Francisco (Calif.)", "doc_count": 7 },
        {
          "key": "Berkeley Folk Music Festival (6th : 1963 : Berkeley, Calif.)",
          "doc_count": 6
        },
        { "key": "Los Angeles (Calif.)", "doc_count": 5 },
        { "key": "University of California, Berkeley", "doc_count": 5 },
        { "key": "University of California, Los Angeles", "doc_count": 5 },
        {
          "key": "Berkeley Folk Music Festival (7th : 1964 : Berkeley, Calif.)",
          "doc_count": 4
        },
        {
          "key": "Wild West Festival (1969 : San Francisco, Calif.)",
          "doc_count": 4
        },
        {
          "key": "Northwestern University (Evanston, Ill.). Traffic Institute",
          "doc_count": 3
        },
        { "key": "Relief (Sculpture)", "doc_count": 3 },
        {
          "key": "William Randolph Hearst Greek Theatre (Berkeley, Calif.)",
          "doc_count": 3
        },
        {
          "key": "Berkeley Folk Music Festival (5th : 1962 : Berkeley, Calif.)",
          "doc_count": 2
        },
        { "key": "Defense work", "doc_count": 2 },
        { "key": "Driftwood, Jimmie", "doc_count": 2 },
        {
          "key": "KQED-TV (Television station : San Francisco, Calif.)",
          "doc_count": 2
        },
        { "key": "NUL Items for Review", "doc_count": 2 },
        { "key": "Richmond (Calif.)", "doc_count": 2 },
        {
          "key": "Richmond Festival of the Arts (1965 : Richmond, Calif.)",
          "doc_count": 2
        },
        {
          "key": "Richmond Memorial Auditorium (Richmond, Calif.)",
          "doc_count": 2
        },
        { "key": "Self-portraits", "doc_count": 2 }
      ]
    }
  }
}
